TestFixture.vcd
$date
	Sun Nov 27 15:53:52 2016
$end
$version
	Icarus Verilog
$end
$timescale
	1s
$end
$scope module testBench $end
$var reg 1 ! clk $end
$var reg 1 " dA $end
$var reg 1 # latchA $end
$var reg 1 $ rst $end
$var reg 1 % sck $end
$var reg 1 & sdi $end
$scope module datapath_Inst $end
$var wire 4 ' ACount [3:0] $end
$var wire 8 ( Aout [7:0] $end
$var wire 1 ) LoadCBuf $end
$var wire 1 * LoadTx $end
$var wire 8 + Q [7:0] $end
$var wire 4 , RXCount [3:0] $end
$var wire 1 - ShiftTx $end
$var wire 4 . TXCount [3:0] $end
$var wire 1 / cin $end
$var wire 1 0 command $end
$var wire 1 1 cout $end
$var wire 1 2 dA $end
$var wire 1 3 decA $end
$var wire 1 4 decRx $end
$var wire 1 5 decTx $end
$var wire 8 6 dout [7:0] $end
$var wire 1 7 in1 $end
$var wire 1 8 in2 $end
$var wire 1 9 in3 $end
$var wire 1 : in4 $end
$var wire 1 ; in5 $end
$var wire 1 < lA $end
$var wire 1 = latchA $end
$var wire 1 > latchRx $end
$var wire 1 ? rst $end
$var wire 1 @ rstA $end
$var wire 1 A rstRX $end
$var wire 1 B rstTx $end
$var wire 8 C rxout [7:0] $end
$var wire 1 D sck $end
$var wire 1 E sdi $end
$var wire 1 F sdo $end
$var wire 1 G sigRE $end
$var wire 1 H sigWE $end
$var wire 1 I ss $end
$var wire 1 J validA $end
$var wire 1 K validRx $end
$scope module counter_5bit_Inst $end
$var wire 1 D sck $end
$var reg 1 L in1 $end
$var reg 1 M in2 $end
$var reg 1 N in3 $end
$var reg 1 O in4 $end
$var reg 1 P in5 $end
$var reg 5 Q out [4:0] $end
$upscope $end
$scope module controller_Inst $end
$var wire 1 0 command $end
$var wire 1 R command1 $end
$var wire 1 S command10 $end
$var wire 1 T command11 $end
$var wire 1 U command2 $end
$var wire 1 V command3 $end
$var wire 1 W command4 $end
$var wire 1 X command5 $end
$var wire 1 Y command6 $end
$var wire 1 Z command7 $end
$var wire 1 [ command8 $end
$var wire 1 \ command9 $end
$var wire 1 1 cout $end
$var wire 1 2 dA $end
$var wire 1 3 decA $end
$var wire 1 ] decA1 $end
$var wire 1 ^ decA2 $end
$var wire 1 _ decA3 $end
$var wire 1 ` decA4 $end
$var wire 1 a decA5 $end
$var wire 1 b decA6 $end
$var wire 1 c decA7 $end
$var wire 1 4 decRx $end
$var wire 1 d decRx1 $end
$var wire 1 e decRx2 $end
$var wire 1 f decRx3 $end
$var wire 1 g decRx4 $end
$var wire 1 h decRx5 $end
$var wire 1 i decRx6 $end
$var wire 1 j decRx7 $end
$var wire 1 k decRx8 $end
$var wire 1 l decRx9 $end
$var wire 1 5 decTx $end
$var wire 1 m decTx1 $end
$var wire 1 n decTx2 $end
$var wire 1 o decTx3 $end
$var wire 1 p decTx4 $end
$var wire 1 q decTx5 $end
$var wire 1 r decTx6 $end
$var wire 1 s decTx7 $end
$var wire 1 t decTx8 $end
$var wire 1 u decTx9 $end
$var wire 1 7 in1 $end
$var wire 1 8 in2 $end
$var wire 1 9 in3 $end
$var wire 1 : in4 $end
$var wire 1 ; in5 $end
$var wire 1 < lA $end
$var wire 1 = latchA $end
$var wire 1 v latchA1 $end
$var wire 1 w latchA2 $end
$var wire 1 x latchA3 $end
$var wire 1 y latchA4 $end
$var wire 1 z latchA5 $end
$var wire 1 { latchA6 $end
$var wire 1 | latchA7 $end
$var wire 1 > latchRx $end
$var wire 1 } latchRx1 $end
$var wire 1 ~ latchRx2 $end
$var wire 1 !" latchRx3 $end
$var wire 1 "" latchRx4 $end
$var wire 1 #" latchRx5 $end
$var wire 1 $" latchRx6 $end
$var wire 1 %" latchRx7 $end
$var wire 1 &" latchRx8 $end
$var wire 1 '" latchRx9 $end
$var wire 1 ) loadCbuf $end
$var wire 1 * loadTx $end
$var wire 1 ? rst $end
$var wire 1 @ rstA $end
$var wire 1 (" rstA1 $end
$var wire 1 A rstRx $end
$var wire 1 )" rstRx1 $end
$var wire 1 B rstTx $end
$var wire 1 *" rstTx1 $end
$var wire 1 - shiftTx $end
$var wire 1 +" shiftTx1 $end
$var wire 1 ," shiftTx2 $end
$var wire 1 -" shiftTx3 $end
$var wire 1 ." shiftTx4 $end
$var wire 1 /" shiftTx5 $end
$var wire 1 0" shiftTx6 $end
$var wire 1 1" shiftTx7 $end
$var wire 1 2" shiftTx8 $end
$var wire 1 3" shiftTx9 $end
$var wire 1 I ss $end
$var wire 1 4" ss1 $end
$var wire 1 5" ss10 $end
$var wire 1 6" ss11 $end
$var wire 1 7" ss12 $end
$var wire 1 8" ss13 $end
$var wire 1 9" ss14 $end
$var wire 1 :" ss15 $end
$var wire 1 ;" ss16 $end
$var wire 1 <" ss17 $end
$var wire 1 =" ss18 $end
$var wire 1 >" ss19 $end
$var wire 1 ?" ss2 $end
$var wire 1 @" ss20 $end
$var wire 1 A" ss3 $end
$var wire 1 B" ss4 $end
$var wire 1 C" ss5 $end
$var wire 1 D" ss6 $end
$var wire 1 E" ss7 $end
$var wire 1 F" ss8 $end
$var wire 1 G" ss9 $end
$var wire 1 J validA $end
$var wire 1 K validRx $end
$upscope $end
$scope module counterRX_4bit_Inst $end
$var wire 1 4 decRx $end
$var wire 1 A rstRX $end
$var wire 1 D sck $end
$var reg 4 H" RXCount [3:0] $end
$upscope $end
$scope module rxbuf_Inst $end
$var wire 4 I" RxCount [3:0] $end
$var wire 1 > latchrxdata $end
$var wire 8 J" rxout [7:0] $end
$var wire 1 D sck $end
$var wire 1 E sdi $end
$var wire 1 K validRx $end
$var reg 8 K" finalRotateRxData [7:0] $end
$upscope $end
$scope module counterAddr_4bit_Inst $end
$var wire 1 3 decA $end
$var wire 1 @ rstA $end
$var wire 1 D sck $end
$var reg 4 L" ACount [3:0] $end
$upscope $end
$scope module addreg_Inst $end
$var wire 4 M" Acount [3:0] $end
$var wire 8 N" Aout [7:0] $end
$var wire 1 = latchA $end
$var wire 1 D sck $end
$var wire 1 E sdi $end
$var wire 1 J validA $end
$var reg 8 O" finalRotateAddr [7:0] $end
$upscope $end
$scope module dflipflop_Inst $end
$var wire 8 P" D [7:0] $end
$var wire 1 D sck $end
$var reg 8 Q" Q [7:0] $end
$upscope $end
$scope module triStatebufLoadCommand_Inst $end
$var wire 1 ) LoadCBuf $end
$var wire 1 / cin $end
$var wire 1 E sdi $end
$upscope $end
$scope module commandBuf_Inst $end
$var wire 1 / cin $end
$var wire 1 ) loadCBuf $end
$var wire 1 D sck $end
$var reg 1 R" cout $end
$upscope $end
$scope module readWriteSig_Inst $end
$var wire 1 0 command $end
$var wire 1 1 cout $end
$var wire 1 G sigRE $end
$var wire 1 H sigWE $end
$upscope $end
$scope module sram_Inst $end
$var wire 8 S" addr [7:0] $end
$var wire 8 T" din [7:0] $end
$var wire 1 U" en $end
$var wire 1 G re $end
$var wire 1 D sck $end
$var wire 1 I ss $end
$var wire 1 H we $end
$var reg 8 V" dout [7:0] $end
$var integer 32 W" k [31:0] $end
$var reg 2 X" read_write_state [1:0] $end
$upscope $end
$scope module counterTX_4bit_Inst $end
$var wire 1 5 decTx $end
$var wire 1 B rstTX $end
$var wire 1 D sck $end
$var reg 4 Y" TXCount [3:0] $end
$upscope $end
$scope module TxBuf_Inst $end
$var wire 1 * LoadTx $end
$var wire 8 Z" ParallelIn [7:0] $end
$var wire 1 - ShiftTx $end
$var wire 4 [" TxCount [3:0] $end
$var wire 1 D sck $end
$var integer 32 \" i [31:0] $end
$var reg 1 ]" sdo $end
$var reg 8 ^" temp [7:0] $end
$var reg 8 _" tempR [7:0] $end
$upscope $end
$upscope $end
$upscope $end
$enddefinitions $end
#0
$dumpvars
bx _"
bx ^"
x]"
b11111111111111111111111111111111 \"
b1000 ["
bx Z"
b1000 Y"
bx X"
b11111111 W"
bx V"
xU"
bx T"
bx S"
xR"
bx Q"
bx P"
b0 O"
bx N"
b1000 M"
b1000 L"
b0 K"
bx J"
b1000 I"
b1000 H"
xG"
xF"
xE"
xD"
xC"
xB"
xA"
x@"
x?"
x>"
x="
x<"
x;"
x:"
x9"
x8"
x7"
x6"
x5"
x4"
x3"
x2"
x1"
x0"
x/"
x."
x-"
x,"
x+"
x*"
x)"
x("
x'"
x&"
x%"
x$"
x#"
x""
x!"
x~
x}
x|
x{
xz
xy
xx
xw
xv
xu
xt
xs
xr
xq
xp
xo
xn
xm
xl
xk
xj
xi
xh
xg
xf
xe
xd
xc
xb
xa
x`
x_
x^
x]
x\
x[
xZ
xY
xX
xW
xV
xU
xT
xS
xR
bx Q
xP
xO
xN
xM
xL
xK
xJ
xI
xH
xG
xF
1E
0D
bx C
xB
xA
x@
0?
x>
1=
1<
x;
x:
x9
x8
x7
bx 6
x5
x4
13
12
x1
x0
x/
b1000 .
x-
b1000 ,
bx +
x*
x)
bx (
b1000 '
1&
0%
0$
1#
1"
0!
$end
#1
1!
#2
0!
#3
1!
#4
0!
#5
b111 L"
b111 '
b111 M"
1U"
0I
1@"
0H
0G
04
0>
05
0-
00
0l
0'"
0u
03"
0@
z/
0A
0B
14"
1]
1v
0?"
0A"
0^
0_
0w
0x
0B"
0C"
0D"
0E"
0`
0a
0b
0c
0y
0z
0{
0|
0F"
0G"
05"
06"
07"
08"
09"
0:"
0("
0J
0)
0R
0U
0V
0W
0X
0Y
0d
0e
0f
0g
0h
0i
0}
0~
0!"
0""
0#"
0$"
0*
0m
0n
0o
0p
0+"
0,"
0-"
0."
0;"
0<"
0="
0>"
0Z
0[
0\
0S
0T
0j
0k
0%"
0&"
0K
0)"
0q
0r
0s
0t
0/"
00"
01"
02"
0*"
b10 Q
1P
1;
0O
0:
0N
09
0M
08
0L
07
1!
1%
1D
#6
0!
#7
1!
#8
0!
#9
1!
#10
0"
02
0#
0<
z]"
zF
bx _"
b11111111111111111111111111111111 \"
0!
0%
0D
#11
1!
#12
0!
#13
1!
#14
0!
#15
b110 L"
b110 '
b110 M"
1?"
1^
1w
04"
0]
0v
bz V"
bz 6
bz Z"
b0 X"
b10000000 O"
b11 Q
0P
0;
1O
1:
1!
1%
1D
#16
0!
#17
1!
#18
0!
#19
1!
#20
z]"
bx _"
b11111111111111111111111111111111 \"
0!
0%
0D
#21
1!
#22
0!
#23
1!
#24
0!
#25
b101 L"
b101 '
b101 M"
0?"
0^
0w
1A"
1_
1x
b100 Q
1P
1;
b11000000 O"
1!
1%
1D
#26
0!
#27
1!
#28
0!
#29
1!
#30
z]"
bx _"
b11111111111111111111111111111111 \"
0!
0%
0D
#31
1!
#32
0!
#33
1!
#34
0!
#35
b100 L"
b100 '
b100 M"
1B"
1`
1y
0A"
0_
0x
b11100000 O"
b101 Q
0P
0;
0O
0:
1N
19
1!
1%
1D
#36
0!
#37
1!
#38
0!
#39
1!
#40
z]"
bx _"
b11111111111111111111111111111111 \"
0!
0%
0D
#41
1!
#42
0!
#43
1!
#44
0!
#45
b11 L"
b11 '
b11 M"
0B"
0`
0y
1C"
1a
1z
b110 Q
1P
1;
b11110000 O"
1!
1%
1D
#46
0!
#47
1!
#48
0!
#49
1!
#50
z]"
bx _"
b11111111111111111111111111111111 \"
0!
0%
0D
#51
1!
#52
0!
#53
1!
#54
0!
#55
b10 L"
b10 '
b10 M"
1D"
1b
1{
0C"
0a
0z
b11111000 O"
b111 Q
0P
0;
1O
1:
1!
1%
1D
#56
0!
#57
1!
#58
0!
#59
1!
#60
z]"
bx _"
b11111111111111111111111111111111 \"
0!
0%
0D
#61
1!
#62
0!
#63
1!
#64
0!
#65
b1 L"
b1 '
b1 M"
0D"
0b
0{
1E"
1c
1|
b1000 Q
1P
1;
b11111100 O"
1!
1%
1D
#66
0!
#67
1!
#68
0!
#69
1!
#70
z]"
bx _"
b11111111111111111111111111111111 \"
0!
0%
0D
#71
1!
#72
0!
#73
1!
#74
0!
#75
b0 L"
b0 '
b0 M"
03
1@
0=
1F"
1("
0E"
0c
0|
b11111110 O"
b1001 Q
0P
0;
0O
0:
0N
09
1M
18
1!
1%
1D
#76
0!
#77
1!
#78
0!
#79
1!
#80
0&
0E
z]"
bx _"
b11111111111111111111111111111111 \"
0!
0%
0D
#81
1!
#82
0!
#83
1!
#84
0!
#85
b1000 L"
b1000 '
b1000 M"
0@
0F"
0("
b11111110 (
b11111110 N"
b11111110 P"
0/
1G"
1J
1)
b1010 Q
1P
1;
1!
1%
1D
#86
0!
#87
1!
#88
0!
#89
1!
#90
z]"
bx _"
b11111111111111111111111111111111 \"
0!
0%
0D
#91
1!
#92
0!
#93
1!
#94
0!
#95
1G
10
1l
1'"
15"
z/
1R
1d
1}
0G"
0J
0)
0R"
01
b11111110 Q"
b11111110 +
b11111110 S"
b1011 Q
0P
0;
1O
1:
1!
1%
1D
#96
0!
#97
1!
#98
0!
#99
1!
#100
1&
1E
z]"
bx _"
b11111111111111111111111111111111 \"
0!
0%
0D
#101
1!
#102
0!
#103
1!
#104
0!
#105
05"
0R
0d
0}
16"
1U
1e
1~
1*
b1100 Q
1P
1;
b0 V"
b0 6
b0 Z"
b1 X"
1!
1%
1D
#106
0!
#107
1!
#108
0!
#109
1!
#110
b0 ^"
0&
0E
z]"
0!
0%
0D
#111
1!
#112
0!
#113
1!
#114
0!
#115
15
1-
1u
13"
17"
1V
1f
1!"
1m
1+"
06"
0U
0e
0~
0*
b1101 Q
0P
0;
0O
0:
1N
19
1!
1%
1D
#116
0!
#117
1!
#118
0!
#119
1!
#120
b111 Y"
b111 .
b111 ["
1&
1E
0]"
0F
b0 _"
b11111111111111111111111111111111 \"
0!
0%
0D
#121
1!
#122
0!
#123
1!
#124
0!
#125
07"
0V
0f
0!"
0m
0+"
18"
1W
1g
1""
1n
1,"
b1110 Q
1P
1;
1!
1%
1D
#126
0!
#127
1!
#128
0!
#129
1!
#130
b110 Y"
b110 .
b110 ["
0]"
b0 _"
b11111111111111111111111111111111 \"
0!
0%
0D
#131
1!
#132
0!
#133
1!
#134
0!
#135
19"
1X
1h
1#"
1o
1-"
08"
0W
0g
0""
0n
0,"
b1111 Q
0P
0;
1O
1:
1!
1%
1D
#136
0!
#137
1!
#138
0!
#139
1!
#140
b101 Y"
b101 .
b101 ["
0]"
b0 _"
b11111111111111111111111111111111 \"
0!
0%
0D
#141
1!
#142
0!
#143
1!
#144
0!
#145
09"
0X
0h
0#"
0o
0-"
1:"
1Y
1i
1$"
1p
1."
b10000 Q
1P
1;
1!
1%
1D
#146
0!
#147
1!
#148
0!
#149
1!
#150
b100 Y"
b100 .
b100 ["
0]"
b0 _"
b11111111111111111111111111111111 \"
0!
0%
0D
#151
1!
#152
0!
#153
1!
#154
0!
#155
1;"
1Z
1j
1%"
1q
1/"
0:"
0Y
0i
0$"
0p
0."
b10001 Q
0P
0;
0O
0:
0N
09
0M
08
1L
17
1!
1%
1D
#156
0!
#157
1!
#158
0!
#159
1!
#160
b11 Y"
b11 .
b11 ["
0&
0E
0]"
b0 _"
b11111111111111111111111111111111 \"
0!
0%
0D
#161
1!
#162
0!
#163
1!
#164
0!
#165
0;"
0Z
0j
0%"
0q
0/"
1<"
1[
1S
1k
1&"
1r
10"
b10010 Q
1P
1;
1!
1%
1D
#166
0!
#167
1!
#168
0!
#169
1!
#170
b10 Y"
b10 .
b10 ["
1&
1E
0]"
b0 _"
b11111111111111111111111111111111 \"
0!
0%
0D
#171
1!
#172
0!
#173
1!
#174
0!
#175
0l
0'"
b0 C
b0 J"
b0 T"
1A
1="
1\
1T
1K
1)"
1s
11"
0<"
0[
0S
0k
0&"
0r
00"
b10011 Q
0P
0;
1O
1:
1!
1%
1D
#176
0!
#177
1!
#178
0!
#179
1!
#180
b1 Y"
b1 .
b1 ["
z&
zE
0]"
b0 _"
b11111111111111111111111111111111 \"
0!
0%
0D
#181
1!
#182
0!
#183
1!
#184
0!
#185
0G
00
0A
0="
0\
0T
0K
0)"
0s
01"
1>"
1t
12"
b10100 Q
1P
1;
1!
1%
1D
#186
0!
#187
1!
#188
0!
#189
1!
#190
b0 Y"
b0 .
b0 ["
0]"
b0 _"
b11111111111111111111111111111111 \"
0!
0%
0D
#191
1!
#192
0!
#193
1!
#194
0!
#195
0U"
1I
0@"
05
0-
0u
03"
1B
1*"
0>"
0t
02"
bz V"
bz 6
bz Z"
b0 X"
b10101 Q
0P
0;
0O
0:
1N
19
1!
1%
1D
#196
0!
#197
1!
#198
0!
#199
1!
#200
b1000 Y"
b1000 .
b1000 ["
z]"
zF
b0 _"
b11111111111111111111111111111111 \"
0!
0%
0D
#201
1!
#202
0!
#203
1!
#204
0!
#205
0B
0*"
b10110 Q
1P
1;
1!
1%
1D
#206
0!
#207
1!
#208
0!
#209
1!
#210
z]"
b0 _"
b11111111111111111111111111111111 \"
0!
0%
0D
#211
1!
#212
0!
#213
1!
#214
0!
#215
b10111 Q
0P
0;
1O
1:
1!
1%
1D
#216
0!
#217
1!
#218
0!
#219
1!
#220
z]"
b0 _"
b11111111111111111111111111111111 \"
0!
0%
0D
#221
1!
#222
0!
#223
1!
#224
0!
#225
b11000 Q
1P
1;
1!
1%
1D
#226
0!
#227
1!
#228
0!
#229
1!
#230
z]"
b0 _"
b11111111111111111111111111111111 \"
0!
0%
0D
#231
1!
#232
0!
#233
1!
#234
0!
#235
b11001 Q
0P
0;
0O
0:
0N
09
1M
18
1!
1%
1D
#236
0!
#237
1!
#238
0!
#239
1!
#240
z]"
b0 _"
b11111111111111111111111111111111 \"
0!
0%
0D
#241
1!
#242
0!
#243
1!
#244
0!
#245
b11010 Q
1P
1;
1!
1%
1D
#246
0!
#247
1!
#248
0!
#249
1!
#250
z]"
b0 _"
b11111111111111111111111111111111 \"
0!
0%
0D
#251
1!
#252
0!
#253
1!
#254
0!
#255
b11011 Q
0P
0;
1O
1:
1!
1%
1D
#256
0!
#257
1!
#258
0!
#259
1!
#260
z]"
b0 _"
b11111111111111111111111111111111 \"
0!
0%
0D
#261
1!
#262
0!
#263
1!
#264
0!
#265
b11100 Q
1P
1;
1!
1%
1D
#266
0!
#267
1!
#268
0!
#269
1!
#270
z]"
b0 _"
b11111111111111111111111111111111 \"
0!
0%
0D
#271
1!
#272
0!
#273
1!
#274
0!
#275
b11101 Q
0P
0;
0O
0:
1N
19
1!
1%
1D
#276
0!
#277
1!
#278
0!
#279
1!
#280
z]"
b0 _"
b11111111111111111111111111111111 \"
0!
0%
0D
#281
1!
#282
0!
#283
1!
#284
0!
#285
b11110 Q
1P
1;
1!
1%
1D
#286
0!
#287
1!
#288
0!
#289
1!
#290
z]"
b0 _"
b11111111111111111111111111111111 \"
0!
0%
0D
#291
1!
#292
0!
#293
1!
#294
0!
#295
b11111 Q
0P
0;
1O
1:
1!
1%
1D
#296
0!
#297
1!
#298
0!
#299
1!
#300
z]"
b0 _"
b11111111111111111111111111111111 \"
0!
0%
0D
#301
1!
#302
0!
#303
1!
#304
0!
#305
b0 Q
1P
1;
1!
1%
1D
#306
0!
#307
1!
#308
0!
#309
1!
#310
z]"
b0 _"
b11111111111111111111111111111111 \"
0!
0%
0D
#311
1!
#312
0!
#313
1!
#314
0!
#315
1U"
0I
1@"
13
1=
14"
1]
1v
b10 Q
0O
0:
0N
09
0M
08
0L
07
1!
1%
1D
#316
0!
#317
1!
#318
0!
#319
1!
#320
z]"
b0 _"
b11111111111111111111111111111111 \"
0!
0%
0D
#321
1!
#322
0!
#323
1!
#324
0!
#325
b111 L"
b111 '
b111 M"
1?"
1^
1w
04"
0]
0v
b11 Q
0P
0;
1O
1:
1!
1%
1D
#326
0!
#327
1!
#328
0!
#329
1!
#330
z]"
b0 _"
b11111111111111111111111111111111 \"
0!
0%
0D
#331
1!
#332
0!
#333
1!
#334
0!
#335
b110 L"
b110 '
b110 M"
0?"
0^
0w
1A"
1_
1x
bz1111110 O"
b100 Q
1P
1;
1!
1%
1D
#336
0!
#337
1!
#338
0!
#339
1!
#340
z]"
b0 _"
b11111111111111111111111111111111 \"
0!
0%
0D
#341
1!
#342
0!
#343
1!
#344
0!
#345
b101 L"
b101 '
b101 M"
1B"
1`
1y
0A"
0_
0x
b101 Q
0P
0;
0O
0:
1N
19
bz111110 O"
1!
1%
1D
#346
0!
#347
1!
#348
0!
#349
1!
#350
z]"
b0 _"
b11111111111111111111111111111111 \"
0!
0%
0D
#351
1!
#352
0!
#353
1!
#354
0!
#355
b100 L"
b100 '
b100 M"
0B"
0`
0y
1C"
1a
1z
bz11110 O"
b110 Q
1P
1;
1!
1%
1D
#356
0!
#357
1!
#358
0!
#359
1!
#360
z]"
b0 _"
b11111111111111111111111111111111 \"
0!
0%
0D
#361
1!
#362
0!
#363
1!
#364
0!
#365
b11 L"
b11 '
b11 M"
1D"
1b
1{
0C"
0a
0z
b111 Q
0P
0;
1O
1:
bz1110 O"
1!
1%
1D
#366
0!
#367
1!
#368
0!
#369
1!
#370
z]"
b0 _"
b11111111111111111111111111111111 \"
0!
0%
0D
#371
1!
#372
0!
#373
1!
#374
0!
#375
b10 L"
b10 '
b10 M"
0D"
0b
0{
1E"
1c
1|
bz110 O"
b1000 Q
1P
1;
1!
1%
1D
#376
0!
#377
1!
#378
0!
#379
1!
#380
z]"
b0 _"
b11111111111111111111111111111111 \"
0!
0%
0D
